ISSS608-VAA - Take-home_ex02
…
PV[, c("CNTSTUID", "Math_Score", "Reading_Score", "Science_Score")] %>% gather(key = "Subject", value = "Scores", Math_Score, Reading_Score, Science_Score)

# A tibble: 19,818 × 3
   CNTSTUID Subject    Scores
      <dbl> <chr>       <dbl>
 1 70200001 Math_Score   605.
 2 70200002 Math_Score   690.
 3 70200003 Math_Score   677.
 4 70200004 Math_Score   401.
 5 70200005 Math_Score   436.
 6 70200006 Math_Score   518.
 7 70200007 Math_Score   708.
 8 70200008 Math_Score   620.
 9 70200009 Math_Score   736.
10 70200010 Math_Score   555.
# ℹ 19,808 more rows
…
