ISSS608-VAA - Take-home_Ex01
…
3.1 Schools

Schools are represented by their respective IDs in the data set. We will convert them to factor as schools are nominal data.

Show the code

# Assign school ids as factor
df$sch_id <- stu_qqq_SG$CNTSCHID %>% factor()

# Show summary
df %>% 
  group_by(sch_id) %>%
  summarise(Count = length(sch_id))

# A tibble: 164 × 2
   sch_id   Count
   <fct>    <int>
 1 70200001    55
 2 70200002    38
 3 70200003    36
 4 70200004    56
 5 70200005    38
 6 70200006    36
 7 70200007    38
 8 70200008    38
 9 70200009    36
10 70200010    36
# ℹ 154 more rows
…
